1 [A0]
3 [A1, A93, A81]
1 [A2]
1 [A3]
1 [A4]
1 [A5]
1 [A6]
1 [A7]
1 [A8]
2 [A9, A29]
1 [A10]
1 [A11]
2 [A12, A16]
5 [A13, A17, A95, A82, A80]
3 [A90, A93, A14]
2 [A28, A15]
2 [A13, A17]
1 [A18]
1 [A19]
1 [A20]
1 [A21]
2 [A80, A22]
1 [A23]
1 [A25]
2 [A26, A57]
1 [A27]
7 [A28, A85, A15, A56, A38, A95, A94]
1 [A30]
1 [A31]
1 [A32]
1 [A33]
1 [A34]
1 [A35]
1 [A36]
1 [A37]
7 [A28, A48, A85, A38, A56, A95, A94]
1 [A39]
1 [A40]
1 [A41]
1 [A42]
1 [A43]
1 [A44]
1 [A45]
1 [A46]
1 [A47]
2 [A48, A38]
1 [A49]
2 [A50, A73]
1 [A51]
1 [A52]
1 [A53]
1 [A54]
1 [A55]
6 [A28, A85, A56, A38, A95, A94]
1 [A58]
1 [A59]
1 [A60]
1 [A61]
1 [A62]
1 [A63]
1 [A64]
1 [A65]
1 [A66]
1 [A67]
1 [A68]
1 [A69]
2 [A88, A70]
1 [A71]
1 [A72]
1 [A74]
2 [A75, A90]
1 [A76]
2 [A77, A90]
1 [A78]
2 [A79, A90]
4 [A13, A82, A80, A22]
2 [A1, A81]
3 [A13, A82, A80]
1 [A83]
1 [A84]
1 [A86]
1 [A87]
1 [A89]
5 [A77, A79, A75, A90, A14]
1 [A91]
1 [A92]
3 [A1, A93, A14]
7 [A28, A13, A85, A56, A38, A95, A94]
1 [A96]
