1 [A0]
6 [A1, A62, A93, A46, A81, A96]
1 [A2]
1 [A3]
1 [A4]
3 [A80, A5, A13]
2 [A6, A53]
1 [A7]
1 [A8]
2 [A9, A29]
1 [A10]
2 [A11, A30]
2 [A12, A16]
12 [A56, A15, A80, A38, A17, A94, A28, A85, A5, A95, A13, A82]
7 [A14, A75, A36, A93, A79, A90, A77]
10 [A56, A15, A38, A80, A17, A94, A28, A85, A95, A13]
2 [A18, A20]
2 [A19, A71]
4 [A18, A50, A81, A20]
1 [A21]
2 [A22, A80]
1 [A23]
2 [A64, A25]
2 [A26, A57]
1 [A27]
13 [A15, A94, A17, A28, A85, A77, A82, A56, A38, A80, A95, A5, A13]
3 [A11, A30, A71]
3 [A31, A90, A77]
1 [A32]
1 [A33]
1 [A34]
1 [A35]
6 [A14, A75, A36, A79, A90, A77]
1 [A37]
15 [A15, A94, A17, A28, A85, A82, A74, A56, A38, A80, A40, A48, A95, A5, A13]
1 [A39]
2 [A38, A40]
1 [A41]
1 [A42]
1 [A43]
1 [A44]
2 [A45, A85]
3 [A1, A46, A81]
1 [A47]
2 [A38, A48]
2 [A91, A49]
3 [A73, A50, A20]
1 [A51]
1 [A52]
3 [A84, A6, A53]
1 [A54]
1 [A55]
1 [A58]
1 [A59]
1 [A60]
1 [A61]
4 [A1, A62, A81, A96]
1 [A63]
3 [A92, A64, A25]
1 [A65]
1 [A66]
1 [A67]
1 [A68]
1 [A69]
3 [A84, A70, A88]
3 [A30, A71, A19]
1 [A72]
2 [A73, A50]
2 [A74, A38]
1 [A76]
8 [A14, A31, A75, A36, A79, A28, A90, A77]
1 [A78]
13 [A15, A22, A17, A94, A28, A85, A82, A56, A80, A38, A5, A95, A13]
6 [A1, A62, A81, A46, A96, A20]
4 [A80, A85, A82, A13]
1 [A83]
4 [A84, A70, A88, A53]
13 [A15, A45, A94, A17, A28, A85, A82, A56, A38, A80, A95, A5, A13]
1 [A86]
1 [A87]
1 [A89]
7 [A14, A31, A75, A36, A79, A90, A77]
2 [A92, A64]
3 [A14, A1, A93]
5 [A1, A62, A81, A46, A96]
