9 26.394813087414292
30 21.75386191788561
92 19.213984877393877
89 4.37671542647167
76 20.90205639177469
44 17.572418910324387
10 16.050759663627808
32 22.850038866511177
51 0.9385061126422068
48 26.803293053494446
18 24.512727015758617
12 23.102861988552032
42 20.09327256024326
70 27.12914281676213
85 28.671457847501895
56 28.557338703978562
29 25.623326973358783
20 25.140633170800708
43 9.262476150095326
60 14.91929192283241
81 20.732683202600597
7 25.440944102890313
39 2.3136244788354228
69 12.15996042682479
17 24.50788636845455
78 18.42440110239556
6 27.434400395731792
84 26.994777754222333
21 15.221489647374916
28 25.822994841354074
19 21.432987068051766
66 0.5864391209101828
40 12.349833933997585
86 0.7457070171719287
46 18.594982686735918
91 19.897562009751933
82 26.717942194897887
53 22.574348102607658
63 13.230711610487132
88 25.54558688431913
90 27.667761995618672
72 19.258299766800867
1 24.14868207193838
83 20.121341247968143
68 17.384601794926287
13 29.129496148682048
61 15.192247897675417
45 20.999731467741004
50 25.341700233198996
24 0.6410642357430625
41 19.516959932160155
22 18.94509221963119
96 25.099229736414348
15 26.196113348880093
23 14.649318069394452
49 21.53570772383584
52 13.749212069818446
87 14.603236520387068
34 22.903229453748793
64 23.77314677407953
71 19.004769980920056
5 15.132485336725342
77 20.526019362589206
31 9.431771606246917
54 12.760370291851752
25 21.90713730478416
38 28.69127270157588
4 5.878616352201163
35 18.224104303582696
2 5.722054978446756
93 25.11018302593452
73 24.60474171436644
95 28.479245283018862
80 28.84741714366474
11 21.451120062186693
27 17.99948413539682
47 9.539820507384416
8 10.223454172850106
14 25.139170376651798
79 25.336697053211836
75 22.622097378277207
58 20.94908487032717
36 23.544194756554354
94 26.977824888700425
3 19.119327256024206
67 5.2787152851388255
55 4.538753444986172
33 21.38346406614376
57 5.658561232421692
16 27.735651190728554
65 10.89355522577867
26 6.355784043530552
59 15.081605540244484
62 24.60582291004175
0 6.50466398134406
74 25.389039643841507
37 21.369429722281048
