2 [A28, A0]
6 [A96, A81, A1, A62, A93, A46]
1 [A2]
9 [A18, A30, A49, A11, A19, A3, A71, A65, A22]
1 [A4]
13 [A15, A17, A38, A13, A82, A85, A28, A94, A95, A56, A5, A80, A20]
5 [A53, A73, A50, A6, A20]
4 [A79, A7, A27, A80]
1 [A8]
2 [A9, A29]
2 [A10, A16]
2 [A12, A16]
17 [A15, A17, A48, A38, A13, A42, A82, A84, A85, A28, A94, A95, A56, A5, A80, A74, A20]
8 [A90, A79, A31, A75, A36, A93, A14, A77]
3 [A12, A10, A16]
15 [A15, A17, A38, A13, A42, A82, A84, A85, A28, A94, A95, A56, A5, A80, A20]
10 [A18, A30, A49, A11, A19, A3, A20, A71, A65, A22]
15 [A30, A49, A72, A11, A83, A44, A34, A71, A65, A18, A91, A19, A3, A45, A22]
21 [A15, A81, A17, A6, A18, A38, A13, A42, A84, A82, A85, A28, A94, A73, A95, A56, A53, A5, A80, A50, A20]
1 [A21]
10 [A18, A30, A49, A11, A19, A3, A80, A71, A65, A22]
1 [A23]
3 [A92, A64, A25]
2 [A57, A26]
21 [A88, A15, A7, A27, A17, A48, A38, A13, A70, A42, A84, A82, A85, A28, A94, A95, A56, A5, A80, A74, A20]
19 [A15, A17, A48, A38, A13, A42, A82, A84, A28, A85, A94, A56, A95, A0, A5, A80, A74, A77, A20]
10 [A18, A30, A49, A11, A19, A3, A65, A71, A41, A22]
7 [A90, A31, A79, A75, A36, A77, A14]
2 [A32, A80]
2 [A38, A33]
1 [A35]
1 [A37]
19 [A15, A40, A17, A48, A38, A13, A42, A82, A84, A28, A94, A85, A56, A95, A5, A74, A80, A20, A33]
1 [A39]
2 [A38, A40]
2 [A30, A41]
1 [A43]
13 [A49, A72, A83, A11, A44, A34, A71, A18, A91, A19, A3, A45, A22]
9 [A91, A72, A49, A85, A83, A19, A44, A34, A45]
1 [A47]
13 [A15, A17, A48, A38, A82, A28, A85, A94, A56, A95, A5, A74, A80]
1 [A51]
1 [A52]
21 [A15, A17, A6, A48, A38, A13, A42, A84, A82, A85, A28, A94, A53, A73, A95, A56, A5, A80, A74, A50, A20]
1 [A54]
1 [A55]
1 [A58]
1 [A59]
1 [A60]
1 [A61]
2 [A63, A71]
7 [A18, A30, A11, A3, A65, A71, A22]
1 [A66]
1 [A67]
1 [A68]
1 [A69]
4 [A88, A70, A84, A27]
16 [A30, A49, A72, A11, A83, A44, A34, A71, A65, A18, A91, A19, A3, A45, A63, A22]
16 [A15, A17, A48, A38, A13, A82, A84, A28, A85, A94, A56, A95, A5, A74, A80, A20]
1 [A76]
8 [A90, A79, A31, A75, A28, A36, A77, A14]
1 [A78]
8 [A90, A79, A31, A75, A7, A36, A14, A77]
20 [A15, A7, A17, A32, A48, A38, A13, A42, A82, A84, A85, A28, A94, A95, A56, A5, A80, A74, A20, A22]
7 [A96, A81, A1, A62, A93, A46, A20]
8 [A91, A49, A72, A83, A19, A44, A34, A45]
29 [A96, A15, A27, A46, A70, A42, A82, A85, A94, A53, A56, A5, A20, A88, A81, A7, A1, A17, A6, A38, A13, A84, A28, A62, A93, A95, A73, A80, A50]
16 [A15, A17, A48, A38, A13, A82, A85, A28, A94, A56, A95, A5, A80, A74, A45, A20]
1 [A86]
1 [A87]
1 [A89]
8 [A96, A81, A84, A1, A62, A93, A46, A14]
15 [A15, A17, A48, A38, A13, A82, A28, A85, A94, A95, A56, A5, A80, A74, A20]
