INTEREST PADA NODE
Node	Interest
9	nella
30	via
92	maya
89	maya
76	maya
44	luna
10	nella
32	luna
51	via
48	luna
18	via
12	maya
42	maya
70	nella
85	via
56	via
29	nella
20	luna
43	luna
60	luna
81	luna
7	maya
39	nella
69	maya
17	maya
78	luna
6	maya
84	nella
21	maya
28	luna
19	maya
66	nella
40	luna
86	luna
46	via
91	via
82	nella
53	nella
63	maya
88	nella
90	luna
72	nella
1	nella
83	via
68	nella
13	nella
61	nella
45	maya
50	luna
24	via
41	luna
22	via
96	nella
15	luna
23	luna
49	via
52	luna
87	luna
34	via
64	via
71	maya
5	luna
77	maya
31	nella
54	maya
25	via
38	via
4	nella
35	luna
2	luna
93	maya
73	via
95	via
80	luna
11	maya
27	nella
47	maya
8	nella
14	maya
79	via
75	nella
58	via
36	nella
94	via
3	maya
67	nella
55	via
33	nella
57	luna
16	maya
65	maya
26	maya
59	via
62	via
0	nella
74	via
37	luna
