INTEREST PADA NODE
Node	Interest
11	maya
31	nella
92	maya
89	maya
77	maya
45	maya
12	maya
33	nella
52	luna
49	via
19	maya
14	maya
43	luna
71	maya
85	via
57	luna
30	via
21	maya
44	luna
61	nella
81	luna
9	nella
40	luna
70	nella
18	via
79	via
8	nella
84	nella
22	via
29	nella
20	luna
67	nella
41	luna
86	luna
47	maya
91	via
82	nella
54	maya
64	via
88	nella
90	luna
73	via
3	maya
83	via
69	maya
15	luna
62	via
46	via
51	via
25	via
42	maya
23	luna
96	nella
16	maya
24	via
50	luna
53	nella
87	luna
35	luna
65	maya
72	nella
7	maya
78	luna
32	luna
55	via
26	maya
39	nella
6	maya
36	nella
4	nella
93	maya
74	via
95	via
80	luna
13	nella
28	luna
48	luna
0	nella
10	nella
1	nella
76	maya
59	via
37	luna
94	via
5	luna
68	nella
56	via
34	via
58	via
17	maya
66	nella
27	nella
60	luna
63	maya
2	luna
75	nella
38	via
