40 [A25, A31, A39, A5, A27, A4, A29, A32, A21, A36, A28, A0, A12, A14, A18, A35, A33, A24, A10, A16, A8, A26, A7, A40, A38, A17, A6, A2, A1, A3, A11, A19, A20, A37, A9, A22, A34, A15, A23, A13]
41 [A25, A31, A39, A5, A27, A4, A29, A32, A21, A36, A28, A0, A12, A30, A14, A35, A18, A33, A24, A10, A16, A26, A8, A7, A40, A38, A17, A6, A2, A1, A3, A11, A19, A20, A37, A9, A22, A34, A15, A23, A13]
38 [A25, A39, A5, A4, A29, A32, A21, A36, A28, A0, A12, A14, A35, A18, A33, A24, A10, A16, A8, A26, A7, A40, A38, A17, A6, A1, A2, A3, A11, A19, A20, A37, A9, A22, A34, A15, A23, A13]
39 [A25, A31, A5, A39, A27, A4, A29, A32, A21, A36, A28, A0, A12, A14, A35, A18, A33, A24, A10, A16, A8, A26, A7, A40, A38, A6, A2, A1, A3, A11, A19, A20, A37, A9, A22, A34, A15, A23, A13]
3 [A30, A9, A16]
37 [A25, A31, A39, A5, A27, A4, A29, A32, A21, A36, A28, A0, A12, A14, A35, A18, A33, A24, A10, A16, A8, A26, A7, A40, A38, A6, A2, A1, A3, A19, A37, A9, A22, A34, A15, A23, A13]
