36 [A24, A33, A14, A19, A9, A34, A39, A25, A29, A32, A10, A21, A8, A40, A26, A15, A7, A27, A36, A31, A13, A20, A0, A23, A28, A5, A38, A12, A18, A16, A35, A4, A6, A17, A3, A37]
3 [A22, A1, A26]
1 [A2]
30 [A24, A14, A19, A9, A34, A39, A25, A32, A10, A21, A8, A7, A27, A36, A31, A13, A0, A23, A28, A5, A38, A12, A18, A16, A4, A35, A6, A17, A3, A37]
34 [A24, A14, A19, A9, A34, A29, A39, A25, A32, A10, A21, A8, A26, A15, A7, A27, A36, A31, A13, A20, A0, A23, A28, A5, A38, A12, A4, A16, A18, A35, A6, A17, A3, A37]
25 [A24, A14, A19, A34, A39, A25, A32, A10, A21, A7, A36, A31, A13, A23, A0, A28, A5, A38, A16, A18, A35, A6, A17, A3, A37]
5 [A6, A17, A28, A5, A32]
13 [A14, A13, A11, A23, A0, A28, A12, A38, A4, A18, A3, A21, A8]
32 [A24, A14, A19, A9, A34, A39, A25, A29, A32, A10, A21, A8, A26, A7, A27, A36, A31, A13, A23, A0, A28, A5, A38, A12, A35, A18, A16, A4, A6, A17, A3, A37]
2 [A11, A8]
4 [A24, A13, A21, A23]
7 [A36, A14, A19, A8, A38, A32, A7]
3 [A20, A34, A15]
32 [A24, A14, A19, A9, A34, A39, A25, A29, A32, A10, A21, A26, A15, A7, A36, A31, A13, A20, A0, A23, A28, A5, A38, A12, A16, A18, A35, A4, A6, A17, A3, A37]
32 [A24, A14, A19, A9, A34, A25, A39, A32, A10, A21, A8, A15, A7, A27, A36, A31, A13, A20, A0, A23, A28, A5, A38, A12, A18, A16, A35, A4, A6, A17, A3, A37]
28 [A24, A14, A19, A34, A39, A25, A32, A10, A21, A8, A7, A27, A36, A31, A13, A0, A23, A28, A5, A38, A12, A16, A18, A35, A6, A17, A3, A37]
33 [A24, A14, A19, A9, A34, A39, A25, A32, A10, A21, A8, A26, A15, A7, A27, A36, A31, A20, A13, A0, A23, A28, A5, A38, A12, A18, A16, A35, A4, A6, A17, A3, A37]
27 [A24, A14, A19, A34, A39, A25, A32, A10, A21, A7, A27, A36, A31, A20, A13, A23, A0, A28, A5, A38, A35, A18, A16, A6, A17, A3, A37]
3 [A22, A1, A25]
27 [A24, A14, A19, A34, A39, A25, A32, A10, A21, A8, A7, A27, A36, A31, A13, A23, A0, A28, A5, A38, A18, A16, A35, A6, A17, A3, A37]
36 [A24, A14, A19, A9, A34, A25, A39, A29, A32, A10, A21, A8, A26, A15, A7, A27, A36, A31, A13, A20, A23, A0, A28, A1, A5, A38, A12, A18, A16, A35, A4, A6, A17, A3, A22, A37]
5 [A31, A0, A1, A26, A29]
31 [A24, A19, A9, A34, A39, A25, A32, A10, A21, A26, A15, A7, A27, A36, A31, A13, A20, A23, A0, A28, A5, A38, A12, A16, A18, A35, A4, A6, A17, A3, A37]
24 [A24, A36, A31, A19, A13, A0, A23, A28, A34, A5, A38, A39, A25, A32, A18, A35, A16, A6, A10, A17, A3, A21, A37, A7]
3 [A4, A26, A29]
1 [A30]
33 [A24, A14, A19, A9, A34, A39, A25, A29, A32, A10, A21, A8, A26, A7, A27, A36, A31, A13, A20, A23, A0, A28, A5, A38, A12, A35, A16, A18, A4, A6, A17, A3, A37]
24 [A24, A36, A14, A31, A19, A13, A23, A0, A28, A34, A5, A38, A39, A25, A32, A16, A18, A35, A6, A17, A3, A21, A37, A7]
3 [A33, A0, A40]
4 [A35, A36, A21, A37]
4 [A35, A31, A37, A34]
22 [A24, A36, A14, A31, A19, A13, A23, A0, A28, A34, A5, A38, A39, A25, A32, A16, A18, A10, A3, A37, A21, A7]
29 [A24, A19, A9, A34, A39, A25, A32, A10, A21, A15, A7, A27, A36, A31, A13, A20, A0, A23, A28, A5, A38, A12, A16, A18, A4, A6, A17, A3, A37]
