36 [A10, A5, A9, A4, A38, A40, A17, A25, A20, A27, A35, A21, A31, A37, A0, A26, A15, A33, A8, A3, A14, A32, A6, A12, A7, A28, A13, A34, A16, A18, A19, A23, A24, A36, A39, A29]
3 [A1, A26, A22]
1 [A2]
30 [A10, A5, A9, A4, A38, A17, A25, A27, A35, A21, A31, A37, A0, A8, A3, A32, A14, A6, A12, A7, A13, A28, A34, A16, A18, A19, A23, A36, A24, A39]
32 [A10, A5, A9, A4, A38, A25, A20, A27, A21, A31, A37, A0, A26, A15, A8, A3, A12, A14, A32, A6, A7, A28, A13, A34, A16, A18, A19, A23, A36, A24, A39, A29]
26 [A10, A5, A38, A17, A25, A27, A35, A21, A31, A37, A0, A32, A6, A14, A3, A7, A13, A28, A34, A16, A18, A19, A23, A36, A24, A39]
5 [A5, A6, A32, A28, A17]
34 [A10, A5, A9, A4, A38, A17, A25, A20, A27, A35, A21, A31, A37, A0, A26, A15, A8, A14, A3, A32, A6, A12, A7, A13, A28, A34, A16, A18, A19, A23, A36, A24, A39, A29]
16 [A4, A12, A14, A38, A7, A28, A13, A18, A21, A0, A8, A11, A23, A36, A24, A39]
29 [A10, A9, A4, A38, A25, A20, A27, A21, A31, A37, A0, A26, A15, A8, A3, A12, A14, A32, A7, A28, A34, A16, A18, A19, A23, A36, A24, A39, A29]
32 [A10, A5, A9, A4, A38, A17, A25, A27, A35, A21, A31, A37, A0, A26, A8, A3, A32, A14, A6, A12, A7, A28, A13, A34, A16, A18, A19, A23, A36, A24, A39, A29]
2 [A8, A11]
4 [A21, A13, A23, A24]
7 [A14, A32, A38, A8, A7, A19, A36]
3 [A15, A20, A34]
33 [A10, A5, A9, A4, A38, A17, A25, A20, A27, A35, A21, A31, A37, A0, A26, A15, A14, A3, A32, A6, A12, A7, A28, A13, A34, A16, A18, A19, A23, A36, A24, A39, A29]
30 [A10, A9, A4, A38, A17, A25, A20, A27, A35, A21, A31, A37, A0, A15, A8, A3, A32, A12, A14, A7, A28, A13, A34, A16, A18, A19, A23, A36, A24, A39]
24 [A10, A5, A32, A3, A6, A38, A7, A28, A17, A25, A34, A27, A16, A35, A18, A21, A31, A37, A0, A19, A23, A36, A24, A39]
27 [A10, A5, A38, A17, A20, A25, A27, A35, A21, A37, A31, A0, A3, A32, A14, A6, A7, A28, A13, A34, A16, A18, A19, A23, A36, A24, A39]
3 [A1, A22, A25]
25 [A10, A5, A38, A25, A27, A35, A21, A31, A37, A0, A8, A6, A3, A32, A7, A13, A28, A34, A16, A18, A19, A23, A24, A36, A39]
36 [A10, A1, A5, A9, A4, A38, A17, A25, A20, A27, A35, A21, A31, A37, A0, A26, A15, A8, A3, A14, A32, A12, A6, A22, A7, A28, A13, A34, A16, A18, A19, A23, A36, A24, A39, A29]
5 [A1, A31, A26, A0, A29]
25 [A10, A5, A38, A17, A25, A27, A35, A21, A31, A37, A0, A6, A3, A32, A7, A28, A13, A34, A16, A18, A19, A23, A24, A36, A39]
3 [A26, A4, A29]
1 [A30]
12 [A5, A31, A32, A14, A6, A38, A7, A19, A17, A36, A39, A16]
3 [A0, A33, A40]
4 [A21, A37, A36, A35]
4 [A37, A31, A34, A35]
24 [A10, A5, A14, A32, A3, A6, A38, A7, A13, A28, A25, A34, A16, A27, A18, A21, A31, A37, A0, A19, A23, A36, A24, A39]
31 [A10, A5, A9, A4, A38, A17, A25, A20, A27, A35, A21, A31, A37, A0, A15, A3, A32, A14, A6, A12, A7, A28, A13, A34, A16, A18, A19, A23, A36, A24, A39]
