6 1.4859649122807017
7 2.2171052631578942
10 1.754824561403509
21 2.299561403508772
28 2.0491228070175436
1 1.7679824561403505
11 1.0662280701754385
26 2.3508771929824555
15 1.9973684210526315
17 1.6767543859649123
0 2.237719298245614
4 1.7675438596491226
31 2.135526315789473
37 1.0701754385964908
12 1.55219298245614
19 2.1245614035087725
20 1.410087719298246
29 2.0951754385964905
9 2.234649122807016
36 2.2868421052631573
8 1.9912280701754388
33 2.0815789473684196
24 2.010964912280702
35 1.1065789473684193
2 2.104824561403509
3 1.871052631578948
23 2.2013157894736852
16 2.1692982456140344
27 1.5245614035087716
40 1.1162280701754386
14 1.6754385964912284
18 1.9657894736842103
25 2.0377192982456136
5 1.8276315789473685
30 0.27850877192982454
13 1.9811403508771936
22 2.0236842105263158
32 2.1640350877192978
38 2.1333333333333333
39 2.2258771929824555
34 2.019736842105262
