2 [A28, A0]
1 [A1]
1 [A2]
1 [A3]
1 [A4]
1 [A5]
2 [A17, A6]
2 [A7, A38]
3 [A8, A14, A12]
1 [A9]
2 [A31, A10]
1 [A11]
2 [A8, A12]
2 [A13, A23]
3 [A8, A14, A38]
1 [A15]
1 [A16]
1 [A18]
3 [A36, A32, A19]
2 [A20, A21]
1 [A22]
1 [A24]
1 [A25]
2 [A26, A29]
1 [A27]
1 [A30]
1 [A33]
1 [A34]
2 [A35, A37]
3 [A14, A7, A38]
1 [A39]
1 [A40]
