INTEREST PADA NODE
Node	Interest
13	nella
31	luna
39	via
14	via
15	maya
20	nella
10	maya
29	luna
7	maya
11	luna
18	luna
21	via
35	maya
38	via
40	maya
0	nella
33	maya
36	luna
28	via
5	luna
16	luna
27	luna
4	nella
6	maya
19	nella
26	nella
34	maya
23	luna
2	via
30	nella
1	nella
9	maya
32	luna
3	nella
12	via
37	nella
22	via
24	via
25	maya
17	nella
8	via
