8 1.9732456140350878
39 2.207456140350877
32 2.1495614035087725
3 1.8574561403508771
34 2.004824561403508
25 2.0346491228070174
28 2.117105263157895
2 2.1846491228070177
12 1.5587719298245608
33 2.060526315789473
17 1.617982456140351
4 1.7881578947368422
13 1.978947368421053
23 2.2078947368421065
22 2.1280701754385962
6 1.5486842105263154
30 0.27850877192982454
5 1.8473684210526315
10 1.7776315789473687
14 1.7074561403508766
16 2.1916666666666664
9 2.306140350877192
29 2.1258771929824554
15 2.0035087719298246
7 2.2517543859649116
31 2.185087719298245
40 1.0964912280701753
18 1.957456140350877
19 2.293859649122808
20 1.4434210526315792
35 1.1118421052631562
0 2.196491228070176
24 2.049561403508772
37 1.0692982456140345
1 1.8100877192982456
26 2.3798245614035083
27 1.5807017543859647
36 2.303508771929824
11 1.3679824561403509
21 2.278508771929825
38 2.13859649122807
