8 1.2083333333333335
39 1.3276315789473687
32 0.8859649122807018
3 0.8135964912280702
34 1.121491228070176
25 1.1539473684210526
28 1.2719298245614035
2 1.182017543859649
12 0.6249999999999999
33 1.1179824561403506
17 0.7850877192982455
4 1.1118421052631577
13 1.2179824561403507
23 0.7833333333333335
22 1.2631578947368431
6 0.7276315789473682
30 0.20438596491228067
5 1.0118421052631583
10 0.6960526315789475
14 0.65
16 0.8811403508771927
9 1.4236842105263152
29 0.8214912280701756
15 1.3447368421052635
7 0.8486842105263159
31 0.9245614035087716
40 0.46315789473684216
18 1.0894736842105264
19 1.2350877192982452
20 0.667982456140351
35 0.41184210526315806
0 0.8574561403508772
24 1.069298245614035
37 0.5416666666666674
1 0.7118421052631579
26 1.4491228070175435
27 0.6561403508771931
36 0.8982456140350875
11 0.6350877192982454
21 1.2276315789473682
38 1.1899122807017541
