2 [A0, A28]
2 [A22, A1]
1 [A2]
2 [A3, A31]
1 [A4]
2 [A5, A32]
2 [A6, A17]
2 [A7, A38]
3 [A12, A14, A8]
2 [A34, A9]
2 [A31, A10]
1 [A11]
2 [A12, A8]
2 [A13, A23]
3 [A14, A8, A38]
1 [A15]
3 [A31, A39, A16]
1 [A18]
3 [A19, A36, A32]
2 [A20, A21]
4 [A20, A23, A24, A21]
4 [A13, A23, A24, A21]
3 [A24, A23, A21]
2 [A39, A25]
2 [A26, A29]
2 [A27, A31]
1 [A30]
6 [A3, A31, A27, A34, A10, A16]
4 [A19, A36, A32, A5]
1 [A33]
3 [A31, A34, A9]
3 [A37, A36, A35]
4 [A19, A36, A32, A35]
2 [A37, A35]
3 [A14, A7, A38]
3 [A39, A25, A16]
1 [A40]
