INTEREST PADA NODE
Node	Interest
6	nella
7	maya
10	maya
21	via
28	via
1	luna
11	maya
26	via
15	via
17	via
0	via
4	maya
31	nella
37	luna
12	nella
19	maya
20	nella
29	luna
9	luna
36	luna
8	luna
33	maya
24	nella
35	nella
2	maya
3	luna
23	maya
16	nella
27	maya
40	nella
14	via
18	luna
25	luna
5	via
30	maya
13	via
22	nella
32	via
38	nella
39	luna
34	nella
